A_Diseno_en_un_FPGA_y_compuertas_logicas/Archivos_Quartus/Tutorial_1/simulation/qsim/tutorial_1.msim.vcd
$comment
	File created using the following command:
		vcd file tutorial_1.msim.vcd -direction
$end
$date
	Mon Feb 02 23:48:37 2015
$end
$version
	ModelSim Version 10.1d
$end
$timescale
	1ps
$end
$scope module tutorial_1_vlg_vec_tst $end
$var reg 1 ! A $end
$var reg 1 " B $end
$var reg 1 # C $end
$var wire 1 $ Y $end
$var wire 1 % sampler $end
$scope module i1 $end
$var wire 1 & gnd $end
$var wire 1 ' vcc $end
$var wire 1 ( unknown $end
$var tri1 1 ) devclrn $end
$var tri1 1 * devpor $end
$var tri1 1 + devoe $end
$var wire 1 , Y~output_o $end
$var wire 1 - C~input_o $end
$var wire 1 . B~input_o $end
$var wire 1 / A~input_o $end
$var wire 1 0 inst2~combout $end
$upscope $end
$upscope $end
$enddefinitions $end
#0
$dumpvars
0!
0"
1#
1$
x%
0&
1'
x(
1)
1*
1+
1,
1-
0.
0/
10
$end
#50000
1!
1/
0%
#100000
0!
0/
1%
#120000
1"
0#
1.
0-
0%
00
0,
0$
#150000
1!
1/
1%
10
1,
1$
#200000
0"
0!
0.
0/
0%
00
0,
0$
#250000
1!
1/
1%
#300000
1"
0!
1.
0/
0%
#350000
1!
1/
1%
10
1,
1$
#360000
0"
0.
0%
00
0,
0$
#400000
0!
0/
1%
#420000
1#
1-
0%
10
1,
1$
#450000
1!
1/
1%
#480000
0#
0-
0%
00
0,
0$
#500000
0!
0/
1%
#550000
1!
1/
0%
#560000
1"
1#
1.
1-
1%
10
1,
1$
#600000
0!
0"
0#
0/
0.
0-
0%
00
0,
0$
#650000
1!
1/
1%
#700000
0!
0/
0%
#750000
1!
1/
1%
